{
  "users": [
    {
      "name": "guest",
      "password_hash": "6yt9TKldKnzMkC4WCSsN4KgxxqdWoE0QLj9EkBxdl0+UjD5c",
      "hashing_algorithm": "rabbit_password_hashing_sha256",
      "tags": "administrator"
    }
  ],
  "vhosts": [
    {
      "name": "/"
    }
  ],
  "permissions": [
    {
      "user": "guest",
      "vhost": "/",
      "configure": ".*",
      "write": ".*",
      "read": ".*"
    }
  ],
  "queues": [
    {
      "name": "orders-receipts-queue",
      "vhost": "/",
      "durable": true,
      "auto_delete": false,
      "arguments": {}
    },
    {
      "name": "tasks-queue",
      "vhost": "/",
      "durable": true,
      "auto_delete": false,
      "arguments": {}
    },
    {
      "name": "stock-queue",
      "vhost": "/",
      "durable": true,
      "auto_delete": false,
      "arguments": {}
    },
    {
      "name": "logs-queue",
      "vhost": "/",
      "durable": true,
      "auto_delete": false,
      "arguments": {}
    }
  ],
  "exchanges": [
    {
      "arguments": {},
      "auto_delete": false,
      "durable": true,
      "internal": false,
      "name": "main_exchange",
      "type": "fanout",
      "vhost": "/"
    }
  ],
  "bindings": [
    {
      "source": "main_exchange",
      "vhost": "/",
      "destination": "orders-receipts-queue",
      "destination_type": "queue",
      "routing_key": "*",
      "arguments": {}
    },
    {
      "source": "main_exchange",
      "vhost": "/",
      "destination": "tasks-queue",
      "destination_type": "queue",
      "routing_key": "*",
      "arguments": {}
    },
    {
      "source": "main_exchange",
      "vhost": "/",
      "destination": "stock-queue",
      "destination_type": "queue",
      "routing_key": "*",
      "arguments": {}
    },
    {
      "source": "main_exchange",
      "vhost": "/",
      "destination": "products-queue",
      "destination_type": "queue",
      "routing_key": "*",
      "arguments": {}
    },
    {
      "source": "main_exchange",
      "vhost": "/",
      "destination": "logs-queue",
      "destination_type": "queue",
      "routing_key": "*",
      "arguments": {}
    }
  ]
}